{
  "slices": {
    "Hero": {
      "default": {
        "primary": {
          "title": {
            "config": {
              "patternType": "HEADING",
              "blocks": 1
            }
          },
          "text": {
            "config": {
              "patternType": "PARAGRAPH",
              "blocks": 1
            }
          },
          "tagline": {
            "config": {
              "patternType": "PARAGRAPH",
              "blocks": 1
            }
          }
        },
        "items": {}
      }
    },
    "ImageAndText": {
      "default": {
        "primary": {
          "tagline": {
            "config": {
              "patternType": "PARAGRAPH",
              "blocks": 1
            }
          },
          "text": {
            "config": {
              "patternType": "STORY",
              "blocks": 1
            }
          }
        }
      }
    },
    "Features": {
      "default": {
        "primary": {
          "tagline": {
            "config": {
              "patternType": "PARAGRAPH",
              "blocks": 1
            }
          },
          "text": {
            "config": {
              "patternType": "PARAGRAPH",
              "blocks": 1
            }
          }
        },
        "items": {
          "description": {
            "config": {
              "patternType": "PARAGRAPH",
              "blocks": 1
            }
          }
        }
      }
    }
  },
  "_cts": {
    "page": {
      "title": {
        "config": {
          "patternType": "HEADING",
          "blocks": 1
        }
      }
    },
    "main_navigation": {
      "links": {}
    },
    "settings": {},
    "footer_navigation": {
      "categories": {}
    }
  },
  "src/slices": {
    "Test": {},
    "Hero": {}
  }
}